Division,WeightClassKg,Place,Name,Team,BodyweightKg,Best3SquatKg,Best3BenchKg,Best3DeadliftKg,TotalKg,Equipment,Event,Sex
Boys,51.71,1,Damian Palomo,Weslaco,51.35,77.11,49.9,90.72,217.72,Single-ply,SBD,M
Boys,55.79,1,Rolanado Gonzalez,PSJA Southwest,52.89,145.15,108.86,142.88,396.89,Single-ply,SBD,M
Boys,55.79,2,Victor Pedraza,PSJA Southwest,53.8,145.15,79.38,156.49,381.02,Single-ply,SBD,M
Boys,55.79,3,Kevin Sierra,PSJA Southwest,54.88,115.67,83.91,147.42,347,Single-ply,SBD,M
Boys,59.87,4,Andres Martinez,Port Isabel,56.02,127.01,83.91,127.01,337.93,Single-ply,SBD,M
Boys,55.79,5,Mario Villarreal,Weslaco,55.07,111.13,56.7,129.27,297.1,Single-ply,SBD,M
Boys,59.87,1,Eric Gaona,PSJA Memorial,59.33,183.7,86.18,188.24,458.13,Single-ply,SBD,M
Boys,59.87,2,Tommy Jasso,Weslaco,59.06,145.15,77.11,163.29,385.55,Single-ply,SBD,M
Boys,59.87,3,Jordan Magallanes,Weslaco,58.51,115.67,70.31,136.08,322.05,Single-ply,SBD,M
Boys,67.13,DQ,Adrian Torres,La Feria,60.06,145.15,74.84,,,Single-ply,SBD,M
Boys,67.13,1,Joshua Garcia,Weslaco,65.36,190.51,113.4,215.46,519.36,Single-ply,SBD,M
Boys,67.13,2,Jesus Garcia #1,Mission,60.96,210.92,102.06,181.44,494.42,Single-ply,SBD,M
Boys,67.13,3,Jorge Cantu,PSJA Southwest,64.23,179.17,122.47,176.9,478.54,Single-ply,SBD,M
Boys,67.13,4,David Garcia #12,Brownsville Veterans Memorial,65.41,158.76,106.59,183.7,449.06,Single-ply,SBD,M
Boys,67.13,5,Marco Chavez,PSJA Memorial,65.41,170.1,99.79,176.9,446.79,Single-ply,SBD,M
Boys,67.13,6,Jose Morales,PSJA Memorial,66.95,154.22,113.4,172.37,439.98,Single-ply,SBD,M
Boys,67.13,7,Jorge Ramos,Weslaco,64.59,151.95,104.33,176.9,433.18,Single-ply,SBD,M
Boys,67.13,8,Joe Rodriguez,PSJA Southwest,67.13,167.83,88.45,158.76,415.04,Single-ply,SBD,M
Boys,67.13,9,Albert Vasquez,La Feria,65.77,149.69,74.84,158.76,383.29,Single-ply,SBD,M
Boys,67.13,10,Scott Barbosa,PSJA Southwest,64.41,113.4,81.65,138.35,333.39,Single-ply,SBD,M
Boys,67.13,11,Edgar Garcia,Mission,63.05,111.13,74.84,108.86,294.84,Single-ply,SBD,M
Boys,67.13,DQ,Jesse Rodriguez,PSJA Memorial,64.86,,,,,Single-ply,SBD,M
Boys,74.84,1,Felix Tirado,Weslaco,72.76,183.7,124.74,204.12,512.56,Single-ply,SBD,M
Boys,74.84,2,Chain Camacho,Port Isabel,70.85,183.7,127.01,192.78,503.49,Single-ply,SBD,M
Boys,74.84,3,Adonis Juarez,Mission,70.67,185.97,106.59,176.9,469.47,Single-ply,SBD,M
Boys,74.84,4,John Ray Martinez,Port Isabel,71.85,176.9,104.33,183.7,464.93,Single-ply,SBD,M
Boys,74.84,5,Luis Rodriguez #11,Brownsville Veterans Memorial,74.12,167.83,115.67,163.29,446.79,Single-ply,SBD,M
Boys,74.84,6,Joesph Segovin,Mission,73.21,158.76,113.4,170.1,442.25,Single-ply,SBD,M
Boys,82.1,7,Jacob Gracia,Weslaco,75.07,163.29,77.11,154.22,394.63,Single-ply,SBD,M
Boys,74.84,8,Christopher Olivarez,La Feria,68.76,138.35,72.57,163.29,374.21,Single-ply,SBD,M
Boys,74.84,9,Edmundo Rodriguez,Port Isabel,70.94,124.74,86.18,142.88,353.8,Single-ply,SBD,M
Boys,74.84,10,Jake Saldana,Mission,70.13,136.08,81.65,131.54,349.27,Single-ply,SBD,M
Boys,74.84,DQ,Eddie Garza,PSJA Southwest,73.21,183.7,108.86,,,Single-ply,SBD,M
Boys,74.84,DQ,Ricardo Carlos,Brownsville Veterans Memorial,74.84,183.7,113.4,,,Single-ply,SBD,M
Boys,82.1,1,Gilbert Trevino,Weslaco,80.83,224.53,129.27,219.99,573.79,Single-ply,SBD,M
Boys,82.1,2,George Sanchez,PSJA Southwest,81.28,210.92,117.93,204.12,532.97,Single-ply,SBD,M
Boys,82.1,3,Javier Galvan,Weslaco,80.01,179.17,111.13,201.85,492.15,Single-ply,SBD,M
Boys,82.1,4,Jacob Hernandez #11,PSJA Memorial,78.02,183.7,120.2,176.9,480.81,Single-ply,SBD,M
Boys,82.1,5,Christian Segovia,Mission,80.47,176.9,106.59,192.78,476.27,Single-ply,SBD,M
Boys,82.1,6,Alex Chairez,Brownsville Veterans Memorial,82.01,163.29,113.4,190.51,467.2,Single-ply,SBD,M
Boys,82.1,7,Aaron Sanchez,Weslaco,76.57,163.29,106.59,181.44,451.32,Single-ply,SBD,M
Boys,82.1,8,Frank De Santiago,Weslaco,81.83,158.76,102.06,181.44,442.25,Single-ply,SBD,M
Boys,82.1,9,Joesph Rios,Mission,80.38,145.15,102.06,167.83,415.04,Single-ply,SBD,M
Boys,82.1,DQ,Omar Lozano,PSJA Memorial,78.74,,,,,Single-ply,SBD,M
Boys,82.1,DQ,Steven Martinez,Port Isabel,81.1,,,,,Single-ply,SBD,M
Boys,89.81,1,Ramon Sauceda,La Feria,88.27,256.28,167.83,249.48,673.58,Single-ply,SBD,M
Boys,89.81,2,Jesus Reyna,Weslaco,86.23,215.46,131.54,213.19,560.19,Single-ply,SBD,M
Boys,89.81,3,Christian Hoshino,Port Isabel,88.72,199.58,122.47,190.51,512.56,Single-ply,SBD,M
Boys,89.81,4,Edward Salinas,Weslaco,84.37,158.76,86.18,165.56,410.5,Single-ply,SBD,M
Boys,89.81,5,Steven Martinez,Weslaco,87.45,142.88,83.91,181.44,408.23,Single-ply,SBD,M
Boys,89.81,6,Mario Cortinas,Mission,82.92,102.06,79.38,129.27,310.71,Single-ply,SBD,M
Boys,89.81,DQ,Lazaro Rodriguez,PSJA Memorial,87.54,,,,,Single-ply,SBD,M
Boys,99.79,1,Jacob Alaniz,Brownsville Veterans Memorial,99.52,272.16,151.95,267.62,691.73,Single-ply,SBD,M
Boys,99.79,2,Erick Vazquez,Brownsville Veterans Memorial,96.07,226.8,127.01,199.58,553.38,Single-ply,SBD,M
Boys,99.79,3,Jesús Torres,Weslaco,94.98,204.12,122.47,208.65,535.24,Single-ply,SBD,M
Boys,99.79,4,Israel Torres,La Feria,99.25,195.04,124.74,204.12,523.9,Single-ply,SBD,M
Boys,99.79,5,Jimmy Cantu,Brownsville Veterans Memorial,91.9,183.7,124.74,199.58,508.02,Single-ply,SBD,M
Boys,99.79,6,Orlando Escobar,Mission,98.97,154.22,97.52,158.76,410.5,Single-ply,SBD,M
Boys,99.79,DQ,JR Ponce,PSJA Southwest,93.8,,,,,Single-ply,SBD,M
Boys,99.79,DQ,Faustino Saldana,PSJA Southwest,97.61,272.16,154.22,,,Single-ply,SBD,M
Boys,109.77,1,Marco Gutierrez,La Feria,108.14,222.26,145.15,195.04,562.45,Single-ply,SBD,M
Boys,109.77,2,Jon Vasquez,PSJA Southwest,104.24,210.92,113.4,165.56,489.88,Single-ply,SBD,M
Boys,109.77,3,Sammy Gutierrez,Brownsville Veterans Memorial,103.15,174.63,124.74,174.63,474,Single-ply,SBD,M
Boys,109.77,4,Jose de Leon #1,Mission,105.05,170.1,81.65,170.1,421.84,Single-ply,SBD,M
Boys,109.77,5,Jesus Bonilla,Mission,108.59,156.49,97.52,151.95,405.97,Single-ply,SBD,M
Boys,109.77,6,Enrico Rivas,Weslaco,108.14,142.88,97.52,142.88,383.29,Single-ply,SBD,M
Boys,109.77,DQ,Chris Peralez,PSJA Memorial,105.14,,,,,Single-ply,SBD,M
Boys,109.77,DQ,Manny Moreno,Weslaco,105.78,,,,,Single-ply,SBD,M
Boys,124.74,1,Jesse Guzman,Brownsville Veterans Memorial,113.31,256.28,140.61,226.8,623.69,Single-ply,SBD,M
Boys,124.74,2,Jose Juarez #5,Weslaco,118.93,240.4,156.49,224.53,621.42,Single-ply,SBD,M
Boys,124.74,3,Rene Perez,Weslaco,117.98,217.72,140.61,195.04,553.38,Single-ply,SBD,M
Boys,124.74,4,Gonzalo Alegria,La Feria,119.66,238.14,124.74,190.51,553.38,Single-ply,SBD,M
Boys,124.74,5,Josh Zavala,Weslaco,121.93,174.63,108.86,165.56,449.06,Single-ply,SBD,M
Boys,124.74+,1,Mario DeLeon,La Feria,137.44,233.6,142.88,222.26,598.74,Single-ply,SBD,M
Boys,124.74+,2,Gabe Rivas,Brownsville Veterans Memorial,132.54,226.8,158.76,204.12,589.67,Single-ply,SBD,M
Boys,124.74+,3,Ricky Coy,Weslaco,169.28,142.88,95.25,142.88,381.02,Single-ply,SBD,M
Boys,124.74+,DQ,Tommy Hernandez,PSJA Memorial,127.37,,,,,Single-ply,SBD,M
