Division,WeightClassKg,Place,Name,Team,BodyweightKg,Best3SquatKg,Best3BenchKg,Best3DeadliftKg,TotalKg,Equipment,Event,Sex
Boys,51.71,1,Paul Espinoza,Fort Worth Boswell,51.71,95.25,56.7,113.4,265.35,Single-ply,SBD,M
Boys,51.71,2,Trey Johnson,Springtown,51.71,90.72,49.9,95.25,235.87,Single-ply,SBD,M
Boys,51.71,3,Parker Robinison,Fort Worth Boswell,47.17,70.31,31.75,79.38,181.44,Single-ply,SBD,M
Boys,51.71,4,Dennis Mema,Saginaw,44.45,47.63,29.48,79.38,156.49,Single-ply,SBD,M
Boys,51.71,DQ,Conner Moore,White Settlement Brewer,48.53,99.79,,111.13,,Single-ply,SBD,M
Boys,55.79,1,Bradden Martin,Fort Worth Boswell,54.88,86.18,47.63,117.93,251.74,Single-ply,SBD,M
Boys,59.87,1,Chase Lynn,Springtown,59.87,149.69,86.18,170.1,405.97,Single-ply,SBD,M
Boys,59.87,2,Sawyer Wachel,Saginaw,59.42,131.54,72.57,124.74,328.85,Single-ply,SBD,M
Boys,67.13,1,Thomas Tyre,Springtown,67.13,167.83,95.25,183.7,446.79,Single-ply,SBD,M
Boys,67.13,2,J. Murry,Springtown,67.13,163.29,92.99,147.42,403.7,Single-ply,SBD,M
Boys,67.13,3,Gage McQuade,Fort Worth Boswell,64.86,154.22,86.18,142.88,383.29,Single-ply,SBD,M
Boys,67.13,4,Marquis Sanders,Saginaw,62.14,154.22,74.84,151.95,381.02,Single-ply,SBD,M
Boys,67.13,5,Billy Williams,Fort Worth Boswell,64.86,136.08,65.77,158.76,360.61,Single-ply,SBD,M
Boys,67.13,6,Giancarlo Gonzales,Saginaw,61.69,136.08,70.31,147.42,353.8,Single-ply,SBD,M
Boys,74.84,1,Ryan Wood #2,Fort Worth Boswell,74.84,197.31,124.74,213.19,535.24,Single-ply,SBD,M
Boys,74.84,2,Juan Díaz,Saginaw,74.39,185.97,115.67,183.7,485.34,Single-ply,SBD,M
Boys,74.84,3,Dominique Allen,Fort Worth Boswell,73.94,174.63,108.86,195.04,478.54,Single-ply,SBD,M
Boys,74.84,4,Billy Chappell,Springtown,74.84,183.7,102.06,185.97,471.74,Single-ply,SBD,M
Boys,74.84,5,Carlos Vasquez,Springtown,74.84,183.7,104.33,172.37,460.4,Single-ply,SBD,M
Boys,74.84,6,Anthony Sanchez,Fort Worth Boswell,73.03,154.22,104.33,158.76,417.3,Single-ply,SBD,M
Boys,74.84,7,Jordan Mayo,Fort Worth Boswell,69.85,140.61,72.57,165.56,378.75,Single-ply,SBD,M
Boys,74.84,8,Marcus Alegria,Fort Worth Boswell,71.21,131.54,90.72,142.88,365.14,Single-ply,SBD,M
Boys,74.84,9,Joseph Earl,White Settlement Brewer,67.59,115.67,,108.86,224.53,Single-ply,SD,M
Boys,74.84,DQ,Davren Montgomery,White Settlement Brewer,74.84,,,163.29,,Single-ply,SD,M
Boys,74.84,DQ,Lewis Blackwell,Saginaw,72.12,183.7,,147.42,,Single-ply,SD,M
Boys,74.84,DQ,Walter Wood,Springtown,74.84,170.1,83.91,156.49,,Single-ply,SBD,M
Boys,82.1,1,Manny Rodriguez,Saginaw,80.74,201.85,124.74,229.06,555.65,Single-ply,SBD,M
Boys,82.1,2,Shannon Larry,White Settlement Brewer,82.1,226.8,113.4,215.46,555.65,Single-ply,SBD,M
Boys,82.1,3,Dustin Martinez,Fort Worth Boswell,78.02,181.44,120.2,181.44,483.08,Single-ply,SBD,M
Boys,82.1,4,Russell Abrams,Saginaw,76.2,183.7,111.13,174.63,469.47,Single-ply,SBD,M
Boys,82.1,5,Jacob Ramirez,Saginaw,79.38,165.56,79.38,170.1,415.04,Single-ply,SBD,M
Boys,82.1,6,Cade Lancaster,Fort Worth Boswell,77.56,145.15,92.99,170.1,408.23,Single-ply,SBD,M
Boys,82.1,7,Damian Hernandez,White Settlement Brewer,76.2,154.22,97.52,149.69,401.43,Single-ply,SBD,M
Boys,82.1,8,Colton Humphrey,Fort Worth Boswell,78.93,147.42,90.72,154.22,392.36,Single-ply,SBD,M
Boys,82.1,9,Dayne Sommer,Fort Worth Boswell,80.29,145.15,90.72,154.22,390.09,Single-ply,SBD,M
Boys,82.1,10,Keith Cox,Saginaw,75.75,156.49,86.18,140.61,383.29,Single-ply,SBD,M
Boys,89.81,1,Russell Murphy,Saginaw,88.9,215.46,142.88,210.92,569.26,Single-ply,SBD,M
Boys,89.81,2,CJ Washington,White Settlement Brewer,86.18,238.14,124.74,204.12,566.99,Single-ply,SBD,M
Boys,89.81,3,Hugo Gonzales,White Settlement Brewer,89.81,226.8,131.54,188.24,546.58,Single-ply,SBD,M
Boys,89.81,4,Trey Lyles,White Settlement Brewer,89.81,192.78,129.27,208.65,530.7,Single-ply,SBD,M
Boys,89.81,5,C. Keys,Springtown,89.81,181.44,102.06,172.37,455.86,Single-ply,SBD,M
Boys,89.81,6,Justin Sanchez,Fort Worth Boswell,88.9,158.76,90.72,172.37,421.84,Single-ply,SBD,M
Boys,89.81,7,Derek Johnson,Fort Worth Boswell,83.01,127.01,65.77,140.61,333.39,Single-ply,SBD,M
Boys,99.79,1,Tanner Smith,White Settlement Brewer,91.63,199.58,108.86,176.9,485.34,Single-ply,SBD,M
Boys,99.79,2,Stephan August,Fort Worth Boswell,95.25,158.76,113.4,190.51,462.66,Single-ply,SBD,M
Boys,99.79,3,C Waldrop,Springtown,99.79,174.63,111.13,176.9,462.66,Single-ply,SBD,M
Boys,99.79,4,Jordan Hernandez,Saginaw,90.72,149.69,102.06,149.69,401.43,Single-ply,SBD,M
Boys,99.79,DQ,Jacob Earl,White Settlement Brewer,98.88,122.47,,129.27,,Single-ply,SBD,M
Boys,109.77,1,Rudy Martinez,Fort Worth Boswell,105.23,172.37,124.74,170.1,467.2,Single-ply,SBD,M
Boys,109.77,2,Tommy Spaulding,White Settlement Brewer,109.32,190.51,102.06,172.37,464.93,Single-ply,SBD,M
Boys,109.77,3,Zach Collier,Fort Worth Boswell,109.77,192.78,102.06,167.83,462.66,Single-ply,SBD,M
Boys,109.77,DQ,Bobby Suber,Saginaw,100.24,204.12,,185.97,,Single-ply,SBD,M
Boys,109.77,DQ,Abraham Quirarte,White Settlement Brewer,101.6,172.37,,158.76,,Single-ply,SBD,M
Boys,124.74,1,James DeLaRossa,White Settlement Brewer,124.74,249.48,158.76,249.48,657.71,Single-ply,SBD,M
Boys,124.74,2,Anthony Washington,White Settlement Brewer,122.47,256.28,127.01,249.48,632.76,Single-ply,SBD,M
Boys,124.74,3,Peter Lopez,Saginaw,118.84,254.01,145.15,229.06,628.23,Single-ply,SBD,M
Boys,124.74,4,Jermaine Rice,White Settlement Brewer,111.13,195.04,133.81,224.53,553.38,Single-ply,SBD,M
Boys,124.74,5,Mario Medina,Saginaw,118.84,224.53,117.93,185.97,528.44,Single-ply,SBD,M
Boys,124.74,6,C Patton,Springtown,124.74,204.12,115.67,176.9,496.68,Single-ply,SBD,M
Boys,124.74,7,E Gaucin,Springtown,124.74,199.58,113.4,181.44,494.42,Single-ply,SBD,M
Boys,124.74,8,Gavin Edgecome,Springtown,124.74,172.37,83.91,163.29,419.57,Single-ply,SBD,M
Boys,124.74,DQ,Jason Salmon,White Settlement Brewer,111.13,181.44,,188.24,,Single-ply,SBD,M
Boys,124.74+,1,Zac Wirts,White Settlement Brewer,127.91,210.92,147.42,190.51,548.85,Single-ply,SBD,M
Boys,124.74+,2,Dj Keastner,White Settlement Brewer,136.08,226.8,117.93,199.58,544.31,Single-ply,SBD,M
Boys,124.74+,3,J Sorrels,Springtown,127.01,217.72,117.93,197.31,532.97,Single-ply,SBD,M
Boys,124.74+,4,Jesse Ioanis,Fort Worth Boswell,125.65,172.37,92.99,163.29,428.64,Single-ply,SBD,M
